Programmation fonctionnelle avec R
…
- `...` est une liste de colonne à utiliser pour effectuer le regroupement.

---

## La fonction `group_by()`

Par exemple, grouper `mtcars` sur la base de la colonne `cyl` (nombre de cylindres).  Le résultat renvoyé nous indique qu'il y a trois groupes de `cyl` dans le *data frame*.

```r
group_by(mtcars, cyl)
```

```
## # A tibble: 32 x 11
## # Groups:   cyl [3]
##      mpg   cyl  disp    hp  drat    wt  qsec    vs    am  gear  carb
##  * <dbl> <dbl> <dbl> <dbl> <dbl> <dbl> <dbl> <dbl> <dbl> <dbl> <dbl>
##  1  21       6  160    110  3.9   2.62  16.5     0     1     4     4
##  2  21       6  160    110  3.9   2.88  17.0     0     1     4     4
##  3  22.8     4  108     93  3.85  2.32  18.6     1     1     4     1
##  4  21.4     6  258    110  3.08  3.22  19.4     1     0     3     1
##  5  18.7     8  360    175  3.15  3.44  17.0     0     0     3     2
##  6  18.1     6  225    105  2.76  3.46  20.2     1     0     3     1
##  7  14.3     8  360    245  3.21  3.57  15.8     0     0     3     4
##  8  24.4     4  147.    62  3.69  3.19  20       1     0     4     2
##  9  22.8     4  141.    95  3.92  3.15  22.9     1     0     4     2
## 10  19.2     6  168.   123  3.92  3.44  18.3     1     0     4     4
## # … with 22 more rows
```
…
---

## La fonction `unnest()`

La fonction `unnest()` de décompresser un *data frame* qui a été compressé avec `nest()`.

```r
mtcars %>% 
  group_by(cyl) %>% # Grouper selon la variable "cyl"
  nest() %>% # "Compresser" le data frame, par défault, la nouvelle colonne se nomme "data"
  unnest()
```

```
## # A tibble: 32 x 11
##      cyl   mpg  disp    hp  drat    wt  qsec    vs    am  gear  carb
##    <dbl> <dbl> <dbl> <dbl> <dbl> <dbl> <dbl> <dbl> <dbl> <dbl> <dbl>
##  1     6  21    160    110  3.9   2.62  16.5     0     1     4     4
##  2     6  21    160    110  3.9   2.88  17.0     0     1     4     4
##  3     6  21.4  258    110  3.08  3.22  19.4     1     0     3     1
##  4     6  18.1  225    105  2.76  3.46  20.2     1     0     3     1
##  5     6  19.2  168.   123  3.92  3.44  18.3     1     0     4     4
##  6     6  17.8  168.   123  3.92  3.44  18.9     1     0     4     4
##  7     6  19.7  145    175  3.62  2.77  15.5     0     1     5     6
##  8     4  22.8  108     93  3.85  2.32  18.6     1     1     4     1
##  9     4  24.4  147.    62  3.69  3.19  20       1     0     4     2
## 10     4  22.8  141.    95  3.92  3.15  22.9     1     0     4     2
## # … with 22 more rows
```
…
---

class: inverse

## À vous de jouer!

.full-width[.content-box-gray[En utilisant le jeu de données `cars`, créer un modèle linéaire multiple (`mpg ~ horsepower + weight`) pour les `model` de chaque année. Par la suite, ajouter une colonne dans le *data frame* qui contient le R2 de la régression.]]

```r
cars <- read_csv("data/clean/cars.csv")
cars
```

```
## # A tibble: 406 x 9
##    car     mpg cylinders displacement horsepower weight acceleration model
##    <chr> <dbl>     <dbl>        <dbl>      <dbl>  <dbl>        <dbl> <dbl>
##  1 Chev…    18         8          307        130   3504         12      70
##  2 Buic…    15         8          350        165   3693         11.5    70
##  3 Plym…    18         8          318        150   3436         11      70
##  4 AMC …    16         8          304        150   3433         12      70
##  5 Ford…    17         8          302        140   3449         10.5    70
##  6 Ford…    15         8          429        198   4341         10      70
##  7 Chev…    14         8          454        220   4354          9      70
##  8 Plym…    14         8          440        215   4312          8.5    70
##  9 Pont…    14         8          455        225   4425         10      70
## 10 AMC …    NA         8          390        190   3850          8.5    70
## # … with 396 more rows, and 1 more variable: origin <chr>
```
…
